{"status":"success","data":{"products":[{"id":20000010019073,"sku":"10019073","name":"Altınkılıç Tam Yağlı Olgunlaştırılmış İnek Peyniri 500 G","brand":"Altınkılıç","category":"İnek Peyniri","unit":"PIECE","regular_price":349.95,"shown_price":349.95,"discount_rate":0,"pretty_name":"altinkilic-tam-yagli-olgunlastirilmis-inek-peyniri-500-g-p-98e101","images":{"PRODUCT_LIST":"https://images.migrosone.com/sanalmarket/product/10019073/10019073_1-7324e2-105x105.jpg","PRODUCT_DETAIL":"https://images.migrosone.com/sanalmarket/product/10019073/10019073_1-7324e2.jpg","PRODUCT_HD":"https://images.migrosone.com/sanalmarket/product/10019073/10019073_1-7324e2-1650x1650.jpg","CART":"https://images.migrosone.com/sanalmarket/product/10019073/10019073_1-7324e2-46x46.jpg"}},{"id":20000031162840,"sku":"31162840","name":"Sleepy Yüzey Temizlik Havlusu Okyanus 100'lü","brand":"Sleepy","category":"Temizlik Havlusu","unit":"PIECE","regular_price":169.95,"shown_price":169.95,"discount_rate":0,"pretty_name":"sleepy-yuzey-temizlik-havlusu-okyanus-100lu-p-1db81d8","images":{"PRODUCT_LIST":"https://images.migrosone.com/sanalmarket/product/31162840/31162840_1-c7a5fe-105x105.jpg","PRODUCT_DETAIL":"https://images.migrosone.com/sanalmarket/product/31162840/31162840_1-c7a5fe.jpg","PRODUCT_HD":"https://images.migrosone.com/sanalmarket/product/31162840/31162840_1-c7a5fe-1650x1650.jpg","CART":"https://images.migrosone.com/sanalmarket/product/31162840/31162840_1-c7a5fe-46x46.jpg"}},{"id":20000008062203,"sku":"08062203","name":"Erikli Su 5 L","brand":"Erikli","category":"Su","unit":"PIECE","regular_price":74.95,"shown_price":74.95,"discount_rate":0,"pretty_name":"erikli-su-5-l-p-7b04fb","images":{"PRODUCT_LIST":"https://images.migrosone.com/sanalmarket/product/08062203/08062203_1-895e5f-105x105.jpg","PRODUCT_DETAIL":"https://images.migrosone.com/sanalmarket/product/08062203/08062203_1-895e5f.jpg","PRODUCT_HD":"https://images.migrosone.com/sanalmarket/product/08062203/08062203_1-895e5f-1650x1650.jpg","CART":"https://images.migrosone.com/sanalmarket/product/08062203/08062203_1-895e5f-46x46.jpg"}},{"id":20000008062216,"sku":"08062216","name":"Erikli Su Avantajlı Paket 6 x 1.5 L","brand":"Erikli","category":"Su","unit":"PIECE","regular_price":219.95,"shown_price":219.95,"discount_rate":0,"pretty_name":"erikli-su-avantajli-paket-6-x-15-l-p-7b0508","images":{"PRODUCT_LIST":"https://images.migrosone.com/sanalmarket/product/08062216/08062216_1-0f5d9c-105x105.jpg","PRODUCT_DETAIL":"https://images.migrosone.com/sanalmarket/product/08062216/08062216_1-0f5d9c.jpg","PRODUCT_HD":"https://images.migrosone.com/sanalmarket/product/08062216/08062216_1-0f5d9c-1650x1650.jpg","CART":"https://images.migrosone.com/sanalmarket/product/08062216/08062216_1-0f5d9c-46x46.jpg"}},{"id":20000031032224,"sku":"31032224","name":"Sleepy Sensitive Islak Havlu 3 x 50'li","brand":"Sleepy","category":"Islak Mendil","unit":"PIECE","regular_price":129.95,"shown_price":129.95,"discount_rate":0,"pretty_name":"sleepy-sensitive-islak-havlu-3-x-50li-p-1d983a0","images":{"PRODUCT_LIST":"https://images.migrosone.com/sanalmarket/product/31032224/31032224_1-c33791-105x105.jpg","PRODUCT_DETAIL":"https://images.migrosone.com/sanalmarket/product/31032224/31032224_1-c33791.jpg","PRODUCT_HD":"https://images.migrosone.com/sanalmarket/product/31032224/31032224_1-c33791-1650x1650.jpg","CART":"https://images.migrosone.com/sanalmarket/product/31032224/31032224_1-c33791-46x46.jpg"}},{"id":20000031160159,"sku":"31160159","name":"Sleepy Yüzey Temizlik Havlusu Portakal 100'lü","brand":"Sleepy","category":"Temizlik Havlusu","unit":"PIECE","regular_price":133.5,"shown_price":133.5,"discount_rate":0,"pretty_name":"sleepy-yuzey-temizlik-havlusu-portakal-100lu-p-1db775f","images":{"PRODUCT_LIST":"https://images.migrosone.com/sanalmarket/product/31160159/31160159_1-6c2b6a-105x105.jpg","PRODUCT_DETAIL":"https://images.migrosone.com/sanalmarket/product/31160159/31160159_1-6c2b6a.jpg","PRODUCT_HD":"https://images.migrosone.com/sanalmarket/product/31160159/31160159_1-6c2b6a-1650x1650.jpg","CART":"https://images.migrosone.com/sanalmarket/product/31160159/31160159_1-6c2b6a-46x46.jpg"}},{"id":20000010100129,"sku":"10100129","name":"Bahçıvan Kaşar Peyniri Taze 700 G","brand":"Bahçıvan","category":"Taze Kaşar","unit":"PIECE","regular_price":575.95,"shown_price":575.95,"discount_rate":0,"pretty_name":"bahcivan-kasar-peyniri-taze-700-g-p-9a1da1","images":{"PRODUCT_LIST":"https://images.migrosone.com/sanalmarket/product/10100129/10100129_1-e3b6dd-105x105.jpg","PRODUCT_DETAIL":"https://images.migrosone.com/sanalmarket/product/10100129/10100129_1-e3b6dd.jpg","PRODUCT_HD":"https://images.migrosone.com/sanalmarket/product/10100129/10100129_1-e3b6dd-1650x1650.jpg","CART":"https://images.migrosone.com/sanalmarket/product/10100129/10100129_1-e3b6dd-46x46.jpg"}},{"id":20000031015372,"sku":"31015372","name":"Solo Ultra Organik Bambu & Pamuk Özlü Tuvalet Kağıdı 16'lı","brand":"Solo","category":"Tuvalet Kağıdı","unit":"PIECE","regular_price":229.95,"shown_price":229.95,"discount_rate":0,"pretty_name":"solo-ultra-organik-bambu-pamuk-ozlu-tuvalet-kagidi-16li-p-1d941cc","images":{"PRODUCT_LIST":"https://images.migrosone.com/sanalmarket/product/31015372/31015372_1-fecc7c-105x105.jpg","PRODUCT_DETAIL":"https://images.migrosone.com/sanalmarket/product/31015372/31015372_1-fecc7c.jpg","PRODUCT_HD":"https://images.migrosone.com/sanalmarket/product/31015372/31015372_1-fecc7c-1650x1650.jpg","CART":"https://images.migrosone.com/sanalmarket/product/31015372/31015372_1-fecc7c-46x46.jpg"}},{"id":20000031162847,"sku":"31162847","name":"Sleepy Yüzey Temizlik Havlusu Çam Ferahlığı 100'lü","brand":"Sleepy","category":"Temizlik Havlusu","unit":"PIECE","regular_price":169.95,"shown_price":169.95,"discount_rate":0,"pretty_name":"sleepy-yuzey-temizlik-havlusu-cam-ferahligi-100lu-p-1db81df","images":{"PRODUCT_LIST":"https://images.migrosone.com/sanalmarket/product/31162847/31162847_1-28745e-105x105.jpg","PRODUCT_DETAIL":"https://images.migrosone.com/sanalmarket/product/31162847/31162847_1-28745e.jpg","PRODUCT_HD":"https://images.migrosone.com/sanalmarket/product/31162847/31162847_1-28745e-1650x1650.jpg","CART":"https://images.migrosone.com/sanalmarket/product/31162847/31162847_1-28745e-46x46.jpg"}},{"id":20000008010905,"sku":"08010905","name":"Coca-Cola Orijinal Tat Pet 4x1 L","brand":"Coca-Cola","category":"Kola","unit":"PIECE","regular_price":228.5,"shown_price":228.5,"discount_rate":0,"pretty_name":"coca-cola-orijinal-tat-pet-4x1-l-p-7a3c99","images":{"PRODUCT_LIST":"https://images.migrosone.com/sanalmarket/product/08010905/08010905_1-b9af12-105x105.jpg","PRODUCT_DETAIL":"https://images.migrosone.com/sanalmarket/product/08010905/08010905_1-b9af12.jpg","PRODUCT_HD":"https://images.migrosone.com/sanalmarket/product/08010905/08010905_1-b9af12-1650x1650.jpg","CART":"https://images.migrosone.com/sanalmarket/product/08010905/08010905_1-b9af12-46x46.jpg"}},{"id":20000010350036,"sku":"10350036","name":"Pınar Labne 400 G","brand":"Pınar","category":"Krem Peynir","unit":"PIECE","regular_price":154.9,"shown_price":154.9,"discount_rate":0,"pretty_name":"pinar-labne-400-g-p-9dedd4","images":{"PRODUCT_LIST":"https://images.migrosone.com/sanalmarket/product/10350036/10350036_1-25ec9b-105x105.jpg","PRODUCT_DETAIL":"https://images.migrosone.com/sanalmarket/product/10350036/10350036_1-25ec9b.jpg","PRODUCT_HD":"https://images.migrosone.com/sanalmarket/product/10350036/10350036_1-25ec9b-1650x1650.jpg","CART":"https://images.migrosone.com/sanalmarket/product/10350036/10350036_1-25ec9b-46x46.jpg"}},{"id":20000003210008,"sku":"03210008","name":"Kahve Dünyası Orta Kavrulmuş Türk Kahvesi 100 G","brand":"Kahve Dünyası","category":"Türk Kahvesi","unit":"PIECE","regular_price":93.0,"shown_price":93.0,"discount_rate":0,"pretty_name":"kahve-dunyasi-orta-kavrulmus-turk-kahvesi-100-g-p-30fb18","images":{"PRODUCT_LIST":"https://images.migrosone.com/sanalmarket/product/03210008/03210008_1-051cdd-105x105.jpg","PRODUCT_DETAIL":"https://images.migrosone.com/sanalmarket/product/03210008/03210008_1-051cdd.jpg","PRODUCT_HD":"https://images.migrosone.com/sanalmarket/product/03210008/03210008_1-051cdd-1650x1650.jpg","CART":"https://images.migrosone.com/sanalmarket/product/03210008/03210008_1-051cdd-46x46.jpg"}},{"id":20000004110402,"sku":"04110402","name":"Yudum Ayçiçekyağı 2 L","brand":"Yudum","category":"Ayçicek Yağı","unit":"PIECE","regular_price":339.95,"shown_price":339.95,"discount_rate":0,"pretty_name":"yudum-aycicekyagi-2-l-p-3eb842","images":{"PRODUCT_LIST":"https://images.migrosone.com/sanalmarket/product/04110402/04110402_1-705de8-105x105.jpg","PRODUCT_DETAIL":"https://images.migrosone.com/sanalmarket/product/04110402/04110402_1-705de8.jpg","PRODUCT_HD":"https://images.migrosone.com/sanalmarket/product/04110402/04110402_1-705de8-1650x1650.jpg","CART":"https://images.migrosone.com/sanalmarket/product/04110402/04110402_1-705de8-46x46.jpg"}},{"id":20000031010095,"sku":"31010095","name":"Süper Maylo Bambu Katkılı Tuvalet Kagıdı 40'lı","brand":"Maylo","category":"Tuvalet Kağıdı","unit":"PIECE","regular_price":519.95,"shown_price":299.95,"discount_rate":42,"pretty_name":"super-maylo-bambu-katkili-tuvalet-kagidi-40li-p-1d92d2f","images":{"PRODUCT_LIST":"https://images.migrosone.com/sanalmarket/product/31010095/31010095_1-f5af26-105x105.jpg","PRODUCT_DETAIL":"https://images.migrosone.com/sanalmarket/product/31010095/31010095_1-f5af26.jpg","PRODUCT_HD":"https://images.migrosone.com/sanalmarket/product/31010095/31010095_1-f5af26-1650x1650.jpg","CART":"https://images.migrosone.com/sanalmarket/product/31010095/31010095_1-f5af26-46x46.jpg"}},{"id":20000005030726,"sku":"05030726","name":"Pastavilla Dirsek Makarna 500 G","brand":"Pastavilla","category":"Makarna","unit":"PIECE","regular_price":46.95,"shown_price":46.95,"discount_rate":0,"pretty_name":"pastavilla-dirsek-makarna-500-g-p-4cc346","images":{"PRODUCT_LIST":"https://images.migrosone.com/sanalmarket/product/05030726/05030726_1-15a578-105x105.jpg","PRODUCT_DETAIL":"https://images.migrosone.com/sanalmarket/product/05030726/05030726_1-15a578.jpg","PRODUCT_HD":"https://images.migrosone.com/sanalmarket/product/05030726/05030726_1-15a578-1650x1650.jpg","CART":"https://images.migrosone.com/sanalmarket/product/05030726/05030726_1-15a578-46x46.jpg"}},{"id":20000005010401,"sku":"05010401","name":"Söke Un 1 Kg","brand":"Söke","category":"Sade Un","unit":"PIECE","regular_price":49.95,"shown_price":49.95,"discount_rate":0,"pretty_name":"soke-un-1-kg-p-4c73e1","images":{"PRODUCT_LIST":"https://images.migrosone.com/sanalmarket/product/05010401/05010401_1-e6b971-105x105.jpg","PRODUCT_DETAIL":"https://images.migrosone.com/sanalmarket/product/05010401/05010401_1-e6b971.jpg","PRODUCT_HD":"https://images.migrosone.com/sanalmarket/product/05010401/05010401_1-e6b971-1650x1650.jpg","CART":"https://images.migrosone.com/sanalmarket/product/05010401/05010401_1-e6b971-46x46.jpg"}},{"id":20000005030711,"sku":"05030711","name":"Pastavilla Burgu Makarna 500 G","brand":"Pastavilla","category":"Makarna","unit":"PIECE","regular_price":46.95,"shown_price":46.95,"discount_rate":0,"pretty_name":"pastavilla-burgu-makarna-500-g-p-4cc337","images":{"PRODUCT_LIST":"https://images.migrosone.com/sanalmarket/product/05030711/5030711_1-2faae4-105x105.jpg","PRODUCT_DETAIL":"https://images.migrosone.com/sanalmarket/product/05030711/5030711_1-2faae4.jpg","PRODUCT_HD":"https://images.migrosone.com/sanalmarket/product/05030711/5030711_1-2faae4-1650x1650.jpg","CART":"https://images.migrosone.com/sanalmarket/product/05030711/5030711_1-2faae4-46x46.jpg"}},{"id":20000005030708,"sku":"05030708","name":"Pastavilla Spaghetti Makarna 500 G","brand":"Pastavilla","category":"Makarna","unit":"PIECE","regular_price":46.95,"shown_price":46.95,"discount_rate":0,"pretty_name":"pastavilla-spaghetti-makarna-500-g-p-4cc334","images":{"PRODUCT_LIST":"https://images.migrosone.com/sanalmarket/product/05030708/5030708_1-d9f675-105x105.jpg","PRODUCT_DETAIL":"https://images.migrosone.com/sanalmarket/product/05030708/5030708_1-d9f675.jpg","PRODUCT_HD":"https://images.migrosone.com/sanalmarket/product/05030708/5030708_1-d9f675-1650x1650.jpg","CART":"https://images.migrosone.com/sanalmarket/product/05030708/5030708_1-d9f675-46x46.jpg"}},{"id":20000016011339,"sku":"16011339","name":"Marmarabirlik Gold Teneke Zeytin 800 G 201-230 Ad/kg","brand":"Marmarabirlik","category":"Siyah Zeytin","unit":"PIECE","regular_price":520.0,"shown_price":520.0,"discount_rate":0,"pretty_name":"marmarabirlik-gold-teneke-zeytin-800-g-201-230-adkg-p-f4504b","images":{"PRODUCT_LIST":"https://images.migrosone.com/sanalmarket/product/16011339/16011339-6b98e4-105x105.jpg","PRODUCT_DETAIL":"https://images.migrosone.com/sanalmarket/product/16011339/16011339-6b98e4.jpg","PRODUCT_HD":"https://images.migrosone.com/sanalmarket/product/16011339/16011339-6b98e4-1650x1650.jpg","CART":"https://images.migrosone.com/sanalmarket/product/16011339/16011339-6b98e4-46x46.jpg"}},{"id":20000013302762,"sku":"13302762","name":"Bolca Tabaklı Alt But Kemiksiz Hindi 500 G","brand":"Bolca","category":"Hindi","unit":"PIECE","regular_price":209.95,"shown_price":157.46,"discount_rate":25,"pretty_name":"bolca-tabakli-alt-but-kemiksiz-hindi-500-g-p-cafbea","images":{"PRODUCT_LIST":"https://images.migrosone.com/sanalmarket/product/13302762/13302762-2f990f-105x105.jpg","PRODUCT_DETAIL":"https://images.migrosone.com/sanalmarket/product/13302762/13302762-2f990f.jpg","PRODUCT_HD":"https://images.migrosone.com/sanalmarket/product/13302762/13302762-2f990f-1650x1650.jpg","CART":"https://images.migrosone.com/sanalmarket/product/13302762/13302762-2f990f-46x46.jpg"}},{"id":20000025509055,"sku":"25509055","name":"Namet Dana Döner 250 G","brand":"Namet","category":"Pişmeye Hazır Kırmızı Et","unit":"PIECE","regular_price":279.95,"shown_price":279.95,"discount_rate":0,"pretty_name":"namet-dana-doner-250-g-p-1853cbf","images":{"PRODUCT_LIST":"https://images.migrosone.com/sanalmarket/product/25509055/25509055_1-3cba83-105x105.jpg","PRODUCT_DETAIL":"https://images.migrosone.com/sanalmarket/product/25509055/25509055_1-3cba83.jpg","PRODUCT_HD":"https://images.migrosone.com/sanalmarket/product/25509055/25509055_1-3cba83-1650x1650.jpg","CART":"https://images.migrosone.com/sanalmarket/product/25509055/25509055_1-3cba83-46x46.jpg"}},{"id":20000031015378,"sku":"31015378","name":"Familia Plus Natural Tuvalet Kağıdı 48'li","brand":"Familia","category":"Tuvalet Kağıdı","unit":"PIECE","regular_price":599.95,"shown_price":369.95,"discount_rate":38,"pretty_name":"familia-plus-natural-tuvalet-kagidi-48li-p-1d941d2","images":{"PRODUCT_LIST":"https://images.migrosone.com/sanalmarket/product/31015378/31015378_1-9e54e2-105x105.jpg","PRODUCT_DETAIL":"https://images.migrosone.com/sanalmarket/product/31015378/31015378_1-9e54e2.jpg","PRODUCT_HD":"https://images.migrosone.com/sanalmarket/product/31015378/31015378_1-9e54e2-1650x1650.jpg","CART":"https://images.migrosone.com/sanalmarket/product/31015378/31015378_1-9e54e2-46x46.jpg"}},{"id":20000008010903,"sku":"08010903","name":"Coca-Cola Orijinal Tat Pet 1,5 L","brand":"Coca-Cola","category":"Kola","unit":"PIECE","regular_price":70.0,"shown_price":70.0,"discount_rate":0,"pretty_name":"coca-cola-orijinal-tat-pet-15-l-p-7a3c97","images":{"PRODUCT_LIST":"https://images.migrosone.com/sanalmarket/product/08010903/8010903_yan-2e2bcb-105x105.jpg","PRODUCT_DETAIL":"https://images.migrosone.com/sanalmarket/product/08010903/8010903_yan-2e2bcb.jpg","PRODUCT_HD":"https://images.migrosone.com/sanalmarket/product/08010903/8010903_yan-2e2bcb-1650x1650.jpg","CART":"https://images.migrosone.com/sanalmarket/product/08010903/8010903_yan-2e2bcb-46x46.jpg"}},{"id":20000031163685,"sku":"31163685","name":"Sleepy Yüzey Temizlik Havlusu Beyaz Sabun 100'lü","brand":"Sleepy","category":"Temizlik Havlusu","unit":"PIECE","regular_price":199.95,"shown_price":119.95,"discount_rate":40,"pretty_name":"sleepy-yuzey-temizlik-havlusu-beyaz-sabun-100lu-p-1db8525","images":{"PRODUCT_LIST":"https://images.migrosone.com/sanalmarket/product/31163685/31163685-807e09-105x105.JPG","PRODUCT_DETAIL":"https://images.migrosone.com/sanalmarket/product/31163685/31163685-807e09.JPG","PRODUCT_HD":"https://images.migrosone.com/sanalmarket/product/31163685/31163685-807e09-1650x1650.JPG","CART":"https://images.migrosone.com/sanalmarket/product/31163685/31163685-807e09-46x46.JPG"}},{"id":20000016011378,"sku":"16011378","name":"Marmarabirlik Kuru Sele Zeytin 351- 380 Ad/kg 800 G","brand":"Marmarabirlik","category":"Siyah Zeytin","unit":"PIECE","regular_price":349.0,"shown_price":349.0,"discount_rate":0,"pretty_name":"marmarabirlik-kuru-sele-zeytin-351-380-adkg-800-g-p-f45072","images":{"PRODUCT_LIST":"https://images.migrosone.com/sanalmarket/product/16011378/16011378_1-114dda-105x105.jpg","PRODUCT_DETAIL":"https://images.migrosone.com/sanalmarket/product/16011378/16011378_1-114dda.jpg","PRODUCT_HD":"https://images.migrosone.com/sanalmarket/product/16011378/16011378_1-114dda-1650x1650.jpg","CART":"https://images.migrosone.com/sanalmarket/product/16011378/16011378_1-114dda-46x46.jpg"}},{"id":20000005030714,"sku":"05030714","name":"Pastavilla Kalem Makarna 500 G","brand":"Pastavilla","category":"Makarna","unit":"PIECE","regular_price":46.95,"shown_price":46.95,"discount_rate":0,"pretty_name":"pastavilla-kalem-makarna-500-g-p-4cc33a","images":{"PRODUCT_LIST":"https://images.migrosone.com/sanalmarket/product/05030714/5030714_1-362415-105x105.jpg","PRODUCT_DETAIL":"https://images.migrosone.com/sanalmarket/product/05030714/5030714_1-362415.jpg","PRODUCT_HD":"https://images.migrosone.com/sanalmarket/product/05030714/5030714_1-362415-1650x1650.jpg","CART":"https://images.migrosone.com/sanalmarket/product/05030714/5030714_1-362415-46x46.jpg"}},{"id":20000004133425,"sku":"04133425","name":"Komili Lezzetlik Yumuşak Natürel Sızma Zeytinyağı 1 L","brand":"Komili","category":"Sızma Zeytinyağı","unit":"PIECE","regular_price":489.95,"shown_price":489.95,"discount_rate":0,"pretty_name":"komili-lezzetlik-yumusak-naturel-sizma-zeytinyagi-1-l-p-3f1231","images":{"PRODUCT_LIST":"https://images.migrosone.com/sanalmarket/product/04133425/04133425_1-e87ce9-105x105.jpg","PRODUCT_DETAIL":"https://images.migrosone.com/sanalmarket/product/04133425/04133425_1-e87ce9.jpg","PRODUCT_HD":"https://images.migrosone.com/sanalmarket/product/04133425/04133425_1-e87ce9-1650x1650.jpg","CART":"https://images.migrosone.com/sanalmarket/product/04133425/04133425_1-e87ce9-46x46.jpg"}},{"id":20000031020036,"sku":"31020036","name":"Familia Plus Natural Havlu 16'lı","brand":"Familia","category":"Rulo Havlu Peçete","unit":"PIECE","regular_price":339.95,"shown_price":219.95,"discount_rate":35,"pretty_name":"familia-plus-natural-havlu-16li-p-1d95404","images":{"PRODUCT_LIST":"https://images.migrosone.com/sanalmarket/product/31020036/31020036-8cf054-105x105.jpeg","PRODUCT_DETAIL":"https://images.migrosone.com/sanalmarket/product/31020036/31020036-8cf054.jpeg","PRODUCT_HD":"https://images.migrosone.com/sanalmarket/product/31020036/31020036-8cf054-1650x1650.jpeg","CART":"https://images.migrosone.com/sanalmarket/product/31020036/31020036-8cf054-46x46.jpeg"}},{"id":20000030130014,"sku":"30130014","name":"Ernet Çamaşır Sodası 500 G","brand":"Ernet","category":"Beyazlatıcılar","unit":"PIECE","regular_price":64.95,"shown_price":49.95,"discount_rate":23,"pretty_name":"ernet-camasir-sodasi-500-g-p-1cbbf5e","images":{"PRODUCT_LIST":"https://images.migrosone.com/sanalmarket/product/30130014/30130014-203836-105x105.jpg","PRODUCT_DETAIL":"https://images.migrosone.com/sanalmarket/product/30130014/30130014-203836.jpg","PRODUCT_HD":"https://images.migrosone.com/sanalmarket/product/30130014/30130014-203836-1650x1650.jpg","CART":"https://images.migrosone.com/sanalmarket/product/30130014/30130014-203836-46x46.jpg"}},{"id":20000008010909,"sku":"08010909","name":"Coca-Cola Zero Sugar Pet 4x1 L","brand":"Coca-Cola","category":"Kola","unit":"PIECE","regular_price":228.5,"shown_price":228.5,"discount_rate":0,"pretty_name":"coca-cola-zero-sugar-pet-4x1-l-p-7a3c9d","images":{"PRODUCT_LIST":"https://images.migrosone.com/sanalmarket/product/08010909/08010909_1-85db45-105x105.jpg","PRODUCT_DETAIL":"https://images.migrosone.com/sanalmarket/product/08010909/08010909_1-85db45.jpg","PRODUCT_HD":"https://images.migrosone.com/sanalmarket/product/08010909/08010909_1-85db45-1650x1650.jpg","CART":"https://images.migrosone.com/sanalmarket/product/08010909/08010909_1-85db45-46x46.jpg"}}],"total_count":5398,"page_count":180,"current_page":1}}