{"status":"success","data":{"products":[{"id":20000007012544,"sku":"07012544","name":"Söke Hello Cookie Macadamia Fındıklı Çikolatalı Cookie 40 G","brand":"Söke","category":"Bisküvi Tatlı","unit":"PIECE","regular_price":29.9,"shown_price":29.9,"discount_rate":0,"pretty_name":"soke-hello-cookie-macadamia-findikli-cikolatali-cookie-40-g-p-6b00c0","images":{"PRODUCT_LIST":"https://images.migrosone.com/sanalmarket/product/07012544/07012544_1-870c3f-105x105.jpg","PRODUCT_DETAIL":"https://images.migrosone.com/sanalmarket/product/07012544/07012544_1-870c3f.jpg","PRODUCT_HD":"https://images.migrosone.com/sanalmarket/product/07012544/07012544_1-870c3f-1650x1650.jpg","CART":"https://images.migrosone.com/sanalmarket/product/07012544/07012544_1-870c3f-46x46.jpg"}},{"id":20000011010267,"sku":"11010267","name":"Torku Laktozsuz Süt 1 L","brand":"Torku","category":"Uzun Ömürlü Süt","unit":"PIECE","regular_price":79.5,"shown_price":79.5,"discount_rate":0,"pretty_name":"torku-laktozsuz-sut-1-l-p-a800db","images":{"PRODUCT_LIST":"https://images.migrosone.com/sanalmarket/product/11010267/11010267_1-9d0dbd-105x105.jpg","PRODUCT_DETAIL":"https://images.migrosone.com/sanalmarket/product/11010267/11010267_1-9d0dbd.jpg","PRODUCT_HD":"https://images.migrosone.com/sanalmarket/product/11010267/11010267_1-9d0dbd-1650x1650.jpg","CART":"https://images.migrosone.com/sanalmarket/product/11010267/11010267_1-9d0dbd-46x46.jpg"}},{"id":20000011011520,"sku":"11011520","name":"Migros %3 Yağlı Uht Süt 1 L","brand":"Migros","category":"Uzun Ömürlü Süt","unit":"PIECE","regular_price":49.95,"shown_price":49.95,"discount_rate":0,"pretty_name":"migros-3-yagli-uht-sut-1-l-p-a805c0","images":{"PRODUCT_LIST":"https://images.migrosone.com/sanalmarket/product/11011520/11011520-0da5c0-105x105.jpg","PRODUCT_DETAIL":"https://images.migrosone.com/sanalmarket/product/11011520/11011520-0da5c0.jpg","PRODUCT_HD":"https://images.migrosone.com/sanalmarket/product/11011520/11011520-0da5c0-1650x1650.jpg","CART":"https://images.migrosone.com/sanalmarket/product/11011520/11011520-0da5c0-46x46.jpg"}},{"id":20000007012547,"sku":"07012547","name":"Söke Hello Cookie Macadamia Fındıklı Çikolatalı 130 G","brand":"Söke","category":"Bisküvi Tatlı","unit":"PIECE","regular_price":99.9,"shown_price":99.9,"discount_rate":0,"pretty_name":"soke-hello-cookie-macadamia-findikli-cikolatali-130-g-p-6b00c3","images":{"PRODUCT_LIST":"https://images.migrosone.com/sanalmarket/product/07012547/07012547_1-ed1561-105x105.jpg","PRODUCT_DETAIL":"https://images.migrosone.com/sanalmarket/product/07012547/07012547_1-ed1561.jpg","PRODUCT_HD":"https://images.migrosone.com/sanalmarket/product/07012547/07012547_1-ed1561-1650x1650.jpg","CART":"https://images.migrosone.com/sanalmarket/product/07012547/07012547_1-ed1561-46x46.jpg"}},{"id":20000007012545,"sku":"07012545","name":"Söke Hello Cookie Brownie 40 G","brand":"Söke","category":"Bisküvi Tatlı","unit":"PIECE","regular_price":29.9,"shown_price":29.9,"discount_rate":0,"pretty_name":"soke-hello-cookie-brownie-40-g-p-6b00c1","images":{"PRODUCT_LIST":"https://images.migrosone.com/sanalmarket/product/07012545/07012545_1-cf3cff-105x105.jpg","PRODUCT_DETAIL":"https://images.migrosone.com/sanalmarket/product/07012545/07012545_1-cf3cff.jpg","PRODUCT_HD":"https://images.migrosone.com/sanalmarket/product/07012545/07012545_1-cf3cff-1650x1650.jpg","CART":"https://images.migrosone.com/sanalmarket/product/07012545/07012545_1-cf3cff-46x46.jpg"}},{"id":20000011010198,"sku":"11010198","name":"Pınar Süt %2,5 Yağlı 1 L","brand":"Pınar","category":"Uzun Ömürlü Süt","unit":"PIECE","regular_price":76.5,"shown_price":76.5,"discount_rate":0,"pretty_name":"pinar-sut-25-yagli-1-l-p-a80096","images":{"PRODUCT_LIST":"https://images.migrosone.com/sanalmarket/product/11010198/11010198_1-c52501-105x105.jpg","PRODUCT_DETAIL":"https://images.migrosone.com/sanalmarket/product/11010198/11010198_1-c52501.jpg","PRODUCT_HD":"https://images.migrosone.com/sanalmarket/product/11010198/11010198_1-c52501-1650x1650.jpg","CART":"https://images.migrosone.com/sanalmarket/product/11010198/11010198_1-c52501-46x46.jpg"}},{"id":20000011010167,"sku":"11010167","name":"Migros Yarım Yağlı Laktozsuz Uht Süt 1 L","brand":"Migros","category":"Uzun Ömürlü Süt","unit":"PIECE","regular_price":59.5,"shown_price":59.5,"discount_rate":0,"pretty_name":"migros-yarim-yagli-laktozsuz-uht-sut-1-l-p-a80077","images":{"PRODUCT_LIST":"https://images.migrosone.com/sanalmarket/product/11010167/11010167-f9b511-105x105.jpg","PRODUCT_DETAIL":"https://images.migrosone.com/sanalmarket/product/11010167/11010167-f9b511.jpg","PRODUCT_HD":"https://images.migrosone.com/sanalmarket/product/11010167/11010167-f9b511-1650x1650.jpg","CART":"https://images.migrosone.com/sanalmarket/product/11010167/11010167-f9b511-46x46.jpg"}},{"id":20000011011540,"sku":"11011540","name":"Migros Yarım Yağlı Uht Süt 1 L","brand":"Migros","category":"Uzun Ömürlü Süt","unit":"PIECE","regular_price":40.75,"shown_price":40.75,"discount_rate":0,"pretty_name":"migros-yarim-yagli-uht-sut-1-l-p-a805d4","images":{"PRODUCT_LIST":"https://images.migrosone.com/sanalmarket/product/11011540/11011540-7a5dc6-105x105.jpg","PRODUCT_DETAIL":"https://images.migrosone.com/sanalmarket/product/11011540/11011540-7a5dc6.jpg","PRODUCT_HD":"https://images.migrosone.com/sanalmarket/product/11011540/11011540-7a5dc6-1650x1650.jpg","CART":"https://images.migrosone.com/sanalmarket/product/11011540/11011540-7a5dc6-46x46.jpg"}},{"id":20000011011501,"sku":"11011501","name":"Migros Yarım Yağlı Uht Süt 1 L","brand":"Migros","category":"Uzun Ömürlü Süt","unit":"PIECE","regular_price":40.75,"shown_price":40.75,"discount_rate":0,"pretty_name":"migros-yarim-yagli-uht-sut-1-l-p-a805ad","images":{"PRODUCT_LIST":"https://images.migrosone.com/sanalmarket/product/11011501/11011501-6e817e-105x105.jpg","PRODUCT_DETAIL":"https://images.migrosone.com/sanalmarket/product/11011501/11011501-6e817e.jpg","PRODUCT_HD":"https://images.migrosone.com/sanalmarket/product/11011501/11011501-6e817e-1650x1650.jpg","CART":"https://images.migrosone.com/sanalmarket/product/11011501/11011501-6e817e-46x46.jpg"}},{"id":20000011014567,"sku":"11014567","name":"İçim Yarım Yağlı Süt 1 L","brand":"İçim","category":"Uzun Ömürlü Süt","unit":"PIECE","regular_price":59.75,"shown_price":49.9,"discount_rate":16,"pretty_name":"icim-yarim-yagli-sut-1-l-p-a811a7","images":{"PRODUCT_LIST":"https://images.migrosone.com/sanalmarket/product/11014567/11014567_1-df2e40-105x105.jpg","PRODUCT_DETAIL":"https://images.migrosone.com/sanalmarket/product/11014567/11014567_1-df2e40.jpg","PRODUCT_HD":"https://images.migrosone.com/sanalmarket/product/11014567/11014567_1-df2e40-1650x1650.jpg","CART":"https://images.migrosone.com/sanalmarket/product/11014567/11014567_1-df2e40-46x46.jpg"}},{"id":20000011010066,"sku":"11010066","name":"İçim Rahat Laktozsuz Süt 1 L","brand":"İçim","category":"Uzun Ömürlü Süt","unit":"PIECE","regular_price":79.5,"shown_price":79.5,"discount_rate":0,"pretty_name":"icim-rahat-laktozsuz-sut-1-l-p-a80012","images":{"PRODUCT_LIST":"https://images.migrosone.com/sanalmarket/product/11010066/11010066-90d964-105x105.jpg","PRODUCT_DETAIL":"https://images.migrosone.com/sanalmarket/product/11010066/11010066-90d964.jpg","PRODUCT_HD":"https://images.migrosone.com/sanalmarket/product/11010066/11010066-90d964-1650x1650.jpg","CART":"https://images.migrosone.com/sanalmarket/product/11010066/11010066-90d964-46x46.jpg"}},{"id":20000011015405,"sku":"11015405","name":"Sek Pastörize Günlük Şişe Süt 1 L","brand":"Sek","category":"Günlük Süt","unit":"PIECE","regular_price":109.0,"shown_price":109.0,"discount_rate":0,"pretty_name":"sek-pastorize-gunluk-sise-sut-1-l-p-a814ed","images":{"PRODUCT_LIST":"https://images.migrosone.com/sanalmarket/product/11015405/11015405-eb805e-105x105.jpg","PRODUCT_DETAIL":"https://images.migrosone.com/sanalmarket/product/11015405/11015405-eb805e.jpg","PRODUCT_HD":"https://images.migrosone.com/sanalmarket/product/11015405/11015405-eb805e-1650x1650.jpg","CART":"https://images.migrosone.com/sanalmarket/product/11015405/11015405-eb805e-46x46.jpg"}},{"id":20000011010208,"sku":"11010208","name":"Sütaş Latte 1 L","brand":"Sütaş","category":"Uzun Ömürlü Süt","unit":"PIECE","regular_price":150.0,"shown_price":150.0,"discount_rate":0,"pretty_name":"sutas-latte-1-l-p-a800a0","images":{"PRODUCT_LIST":"https://images.migrosone.com/sanalmarket/product/11010208/11010208_1-2ec412-105x105.jpg","PRODUCT_DETAIL":"https://images.migrosone.com/sanalmarket/product/11010208/11010208_1-2ec412.jpg","PRODUCT_HD":"https://images.migrosone.com/sanalmarket/product/11010208/11010208_1-2ec412-1650x1650.jpg","CART":"https://images.migrosone.com/sanalmarket/product/11010208/11010208_1-2ec412-46x46.jpg"}},{"id":20000011013029,"sku":"11013029","name":"İçim Sade Süt 6X200 Ml","brand":"İçim","category":"Uzun Ömürlü Süt","unit":"PIECE","regular_price":131.0,"shown_price":131.0,"discount_rate":0,"pretty_name":"icim-sade-sut-6x200-ml-p-a80ba5","images":{"PRODUCT_LIST":"https://images.migrosone.com/sanalmarket/product/11013029/11013029-c36872-105x105.jpg","PRODUCT_DETAIL":"https://images.migrosone.com/sanalmarket/product/11013029/11013029-c36872.jpg","PRODUCT_HD":"https://images.migrosone.com/sanalmarket/product/11013029/11013029-c36872-1650x1650.jpg","CART":"https://images.migrosone.com/sanalmarket/product/11013029/11013029-c36872-46x46.jpg"}},{"id":20000011019904,"sku":"11019904","name":"Torku Uht Süt 1 L","brand":"Torku","category":"Uzun Ömürlü Süt","unit":"PIECE","regular_price":75.0,"shown_price":75.0,"discount_rate":0,"pretty_name":"torku-uht-sut-1-l-p-a82680","images":{"PRODUCT_LIST":"https://images.migrosone.com/sanalmarket/product/11019904/11019904_1-bca35b-105x105.jpg","PRODUCT_DETAIL":"https://images.migrosone.com/sanalmarket/product/11019904/11019904_1-bca35b.jpg","PRODUCT_HD":"https://images.migrosone.com/sanalmarket/product/11019904/11019904_1-bca35b-1650x1650.jpg","CART":"https://images.migrosone.com/sanalmarket/product/11019904/11019904_1-bca35b-46x46.jpg"}},{"id":20000011010089,"sku":"11010089","name":"Pınar Denge Laktozsuz Süt 1 L","brand":"Pınar","category":"Uzun Ömürlü Süt","unit":"PIECE","regular_price":87.5,"shown_price":87.5,"discount_rate":0,"pretty_name":"pinar-denge-laktozsuz-sut-1-l-p-a80029","images":{"PRODUCT_LIST":"https://images.migrosone.com/sanalmarket/product/11010089/11010089_1-74fc9a-105x105.jpeg","PRODUCT_DETAIL":"https://images.migrosone.com/sanalmarket/product/11010089/11010089_1-74fc9a.jpeg","PRODUCT_HD":"https://images.migrosone.com/sanalmarket/product/11010089/11010089_1-74fc9a-1650x1650.jpeg","CART":"https://images.migrosone.com/sanalmarket/product/11010089/11010089_1-74fc9a-46x46.jpeg"}},{"id":20000011014322,"sku":"11014322","name":"Nesquik Kakaolu Süt 6x180 Ml","brand":"Nesquik","category":"Uzun Ömürlü Süt","unit":"PIECE","regular_price":172.75,"shown_price":120.93,"discount_rate":30,"pretty_name":"nesquik-kakaolu-sut-6x180-ml-p-a810b2","images":{"PRODUCT_LIST":"https://images.migrosone.com/sanalmarket/product/11014322/11014322_1-0ef73c-105x105.jpg","PRODUCT_DETAIL":"https://images.migrosone.com/sanalmarket/product/11014322/11014322_1-0ef73c.jpg","PRODUCT_HD":"https://images.migrosone.com/sanalmarket/product/11014322/11014322_1-0ef73c-1650x1650.jpg","CART":"https://images.migrosone.com/sanalmarket/product/11014322/11014322_1-0ef73c-46x46.jpg"}},{"id":20000011010010,"sku":"11010010","name":"Pınar Süt 1 L","brand":"Pınar","category":"Uzun Ömürlü Süt","unit":"PIECE","regular_price":79.95,"shown_price":79.95,"discount_rate":0,"pretty_name":"pinar-sut-1-l-p-a7ffda","images":{"PRODUCT_LIST":"https://images.migrosone.com/sanalmarket/product/11010010/11010010-597764-105x105.jpg","PRODUCT_DETAIL":"https://images.migrosone.com/sanalmarket/product/11010010/11010010-597764.jpg","PRODUCT_HD":"https://images.migrosone.com/sanalmarket/product/11010010/11010010-597764-1650x1650.jpg","CART":"https://images.migrosone.com/sanalmarket/product/11010010/11010010-597764-46x46.jpg"}},{"id":20000011012000,"sku":"11012000","name":"Sek Süt 1 L","brand":"Sek","category":"Uzun Ömürlü Süt","unit":"PIECE","regular_price":68.95,"shown_price":68.95,"discount_rate":0,"pretty_name":"sek-sut-1-l-p-a807a0","images":{"PRODUCT_LIST":"https://images.migrosone.com/sanalmarket/product/11012000/11012000_1-ad06f1-105x105.jpg","PRODUCT_DETAIL":"https://images.migrosone.com/sanalmarket/product/11012000/11012000_1-ad06f1.jpg","PRODUCT_HD":"https://images.migrosone.com/sanalmarket/product/11012000/11012000_1-ad06f1-1650x1650.jpg","CART":"https://images.migrosone.com/sanalmarket/product/11012000/11012000_1-ad06f1-46x46.jpg"}},{"id":20000011019905,"sku":"11019905","name":"Torku Süt 4 x 1 L","brand":"Torku","category":"Uzun Ömürlü Süt","unit":"PIECE","regular_price":299.0,"shown_price":249.95,"discount_rate":16,"pretty_name":"torku-sut-4-x-1-l-p-a82681","images":{"PRODUCT_LIST":"https://images.migrosone.com/sanalmarket/product/11019905/11019905-921c2c-105x105.jpg","PRODUCT_DETAIL":"https://images.migrosone.com/sanalmarket/product/11019905/11019905-921c2c.jpg","PRODUCT_HD":"https://images.migrosone.com/sanalmarket/product/11019905/11019905-921c2c-1650x1650.jpg","CART":"https://images.migrosone.com/sanalmarket/product/11019905/11019905-921c2c-46x46.jpg"}},{"id":20000011018882,"sku":"11018882","name":"İçim Pastörize Şişe Süt 1 L","brand":"İçim","category":"Günlük Süt","unit":"PIECE","regular_price":114.9,"shown_price":114.9,"discount_rate":0,"pretty_name":"icim-pastorize-sise-sut-1-l-p-a82282","images":{"PRODUCT_LIST":"https://images.migrosone.com/sanalmarket/product/11018882/11018882-dd7753-105x105.png","PRODUCT_DETAIL":"https://images.migrosone.com/sanalmarket/product/11018882/11018882-dd7753.png","PRODUCT_HD":"https://images.migrosone.com/sanalmarket/product/11018882/11018882-dd7753-1650x1650.png","CART":"https://images.migrosone.com/sanalmarket/product/11018882/11018882-dd7753-46x46.png"}},{"id":20000011011521,"sku":"11011521","name":"Migros %3 Yağlı UHT İçme Sütü 200 Ml","brand":"Migros","category":"Uzun Ömürlü Süt","unit":"PIECE","regular_price":14.75,"shown_price":14.75,"discount_rate":0,"pretty_name":"migros-3-yagli-uht-icme-sutu-200-ml-p-a805c1","images":{"PRODUCT_LIST":"https://images.migrosone.com/sanalmarket/product/11011521/11011521-dc97c1-105x105.jpg","PRODUCT_DETAIL":"https://images.migrosone.com/sanalmarket/product/11011521/11011521-dc97c1.jpg","PRODUCT_HD":"https://images.migrosone.com/sanalmarket/product/11011521/11011521-dc97c1-1650x1650.jpg","CART":"https://images.migrosone.com/sanalmarket/product/11011521/11011521-dc97c1-46x46.jpg"}},{"id":20000011010303,"sku":"11010303","name":"Pınar Yüksek Proteinli Laktozsuz  %0.3 Yağlı UHT Süt 1 L","brand":"Pınar","category":"Uzun Ömürlü Süt","unit":"PIECE","regular_price":115.0,"shown_price":115.0,"discount_rate":0,"pretty_name":"pinar-yuksek-proteinli-laktozsuz-03-yagli-uht-sut-1-l-p-a800ff","images":{"PRODUCT_LIST":"https://images.migrosone.com/sanalmarket/product/11010303/11010303_1-62305d-105x105.jpg","PRODUCT_DETAIL":"https://images.migrosone.com/sanalmarket/product/11010303/11010303_1-62305d.jpg","PRODUCT_HD":"https://images.migrosone.com/sanalmarket/product/11010303/11010303_1-62305d-1650x1650.jpg","CART":"https://images.migrosone.com/sanalmarket/product/11010303/11010303_1-62305d-46x46.jpg"}},{"id":20000011017080,"sku":"11017080","name":"Baltalı % 100 Pastörize Keçi Sütü 1L","brand":"Baltalı","category":"Günlük Süt","unit":"PIECE","regular_price":279.0,"shown_price":279.0,"discount_rate":0,"pretty_name":"baltali-100-pastorize-keci-sutu-1l-p-a81b78","images":{"PRODUCT_LIST":"https://images.migrosone.com/sanalmarket/product/11017080/11017080-144923-105x105.JPG","PRODUCT_DETAIL":"https://images.migrosone.com/sanalmarket/product/11017080/11017080-144923.JPG","PRODUCT_HD":"https://images.migrosone.com/sanalmarket/product/11017080/11017080-144923-1650x1650.JPG","CART":"https://images.migrosone.com/sanalmarket/product/11017080/11017080-144923-46x46.JPG"}},{"id":20000011019001,"sku":"11019001","name":"Pınar Organik Süt 1 L","brand":"Pınar","category":"Uzun Ömürlü Süt","unit":"PIECE","regular_price":101.95,"shown_price":101.95,"discount_rate":0,"pretty_name":"pinar-organik-sut-1-l-p-a822f9","images":{"PRODUCT_LIST":"https://images.migrosone.com/sanalmarket/product/11019001/11019001-3a44f3-105x105.jpg","PRODUCT_DETAIL":"https://images.migrosone.com/sanalmarket/product/11019001/11019001-3a44f3.jpg","PRODUCT_HD":"https://images.migrosone.com/sanalmarket/product/11019001/11019001-3a44f3-1650x1650.jpg","CART":"https://images.migrosone.com/sanalmarket/product/11019001/11019001-3a44f3-46x46.jpg"}},{"id":20000011019978,"sku":"11019978","name":"İçim Light Süt 1 L","brand":"İçim","category":"Uzun Ömürlü Süt","unit":"PIECE","regular_price":64.9,"shown_price":64.9,"discount_rate":0,"pretty_name":"icim-light-sut-1-l-p-a826ca","images":{"PRODUCT_LIST":"https://images.migrosone.com/sanalmarket/product/11019978/11019978-6274fc-105x105.png","PRODUCT_DETAIL":"https://images.migrosone.com/sanalmarket/product/11019978/11019978-6274fc.png","PRODUCT_HD":"https://images.migrosone.com/sanalmarket/product/11019978/11019978-6274fc-1650x1650.png","CART":"https://images.migrosone.com/sanalmarket/product/11019978/11019978-6274fc-46x46.png"}},{"id":20000011013025,"sku":"11013025","name":"İçim Süt 1 L","brand":"İçim","category":"Uzun Ömürlü Süt","unit":"PIECE","regular_price":69.5,"shown_price":69.5,"discount_rate":0,"pretty_name":"icim-sut-1-l-p-a80ba1","images":{"PRODUCT_LIST":"https://images.migrosone.com/sanalmarket/product/11013025/11013025_1-195cf0-105x105.jpg","PRODUCT_DETAIL":"https://images.migrosone.com/sanalmarket/product/11013025/11013025_1-195cf0.jpg","PRODUCT_HD":"https://images.migrosone.com/sanalmarket/product/11013025/11013025_1-195cf0-1650x1650.jpg","CART":"https://images.migrosone.com/sanalmarket/product/11013025/11013025_1-195cf0-46x46.jpg"}},{"id":20000011015050,"sku":"11015050","name":"Pınar Protein Kakaolu Süt 500 Ml","brand":"Pınar","category":"Uzun Ömürlü Süt","unit":"PIECE","regular_price":89.95,"shown_price":89.95,"discount_rate":0,"pretty_name":"pinar-protein-kakaolu-sut-500-ml-p-a8138a","images":{"PRODUCT_LIST":"https://images.migrosone.com/sanalmarket/product/11015050/11015050-c2c73d-105x105.jpg","PRODUCT_DETAIL":"https://images.migrosone.com/sanalmarket/product/11015050/11015050-c2c73d.jpg","PRODUCT_HD":"https://images.migrosone.com/sanalmarket/product/11015050/11015050-c2c73d-1650x1650.jpg","CART":"https://images.migrosone.com/sanalmarket/product/11015050/11015050-c2c73d-46x46.jpg"}},{"id":20000011010274,"sku":"11010274","name":"Yörsan %3 Yağlı Uht Süt 1 L","brand":"Yörsan","category":"Uzun Ömürlü Süt","unit":"PIECE","regular_price":66.95,"shown_price":66.95,"discount_rate":0,"pretty_name":"yorsan-3-yagli-uht-sut-1-l-p-a800e2","images":{"PRODUCT_LIST":"https://images.migrosone.com/sanalmarket/product/11010274/11010274_1-8e9491-105x105.jpg","PRODUCT_DETAIL":"https://images.migrosone.com/sanalmarket/product/11010274/11010274_1-8e9491.jpg","PRODUCT_HD":"https://images.migrosone.com/sanalmarket/product/11010274/11010274_1-8e9491-1650x1650.jpg","CART":"https://images.migrosone.com/sanalmarket/product/11010274/11010274_1-8e9491-46x46.jpg"}},{"id":20000011010168,"sku":"11010168","name":"Danone Uht Laktozsuz İçme Sütü 1 L","brand":"Danone","category":"Uzun Ömürlü Süt","unit":"PIECE","regular_price":76.5,"shown_price":76.5,"discount_rate":0,"pretty_name":"danone-uht-laktozsuz-icme-sutu-1-l-p-a80078","images":{"PRODUCT_LIST":"https://images.migrosone.com/sanalmarket/product/11010168/11010168-6084b8-105x105.jpg","PRODUCT_DETAIL":"https://images.migrosone.com/sanalmarket/product/11010168/11010168-6084b8.jpg","PRODUCT_HD":"https://images.migrosone.com/sanalmarket/product/11010168/11010168-6084b8-1650x1650.jpg","CART":"https://images.migrosone.com/sanalmarket/product/11010168/11010168-6084b8-46x46.jpg"}},{"id":20000011012999,"sku":"11012999","name":"İçim Rahat Laktozsuz Süt 200 Ml","brand":"İçim","category":"Uzun Ömürlü Süt","unit":"PIECE","regular_price":25.9,"shown_price":25.9,"discount_rate":0,"pretty_name":"icim-rahat-laktozsuz-sut-200-ml-p-a80b87","images":{"PRODUCT_LIST":"https://images.migrosone.com/sanalmarket/product/11012999/11012999-1bb00d-105x105.jpg","PRODUCT_DETAIL":"https://images.migrosone.com/sanalmarket/product/11012999/11012999-1bb00d.jpg","PRODUCT_HD":"https://images.migrosone.com/sanalmarket/product/11012999/11012999-1bb00d-1650x1650.jpg","CART":"https://images.migrosone.com/sanalmarket/product/11012999/11012999-1bb00d-46x46.jpg"}},{"id":20000011019550,"sku":"11019550","name":"Sek Yeni Nesil Pastörize Günlük Süt 1 L","brand":"Sek","category":"Günlük Süt","unit":"PIECE","regular_price":99.95,"shown_price":99.95,"discount_rate":0,"pretty_name":"sek-yeni-nesil-pastorize-gunluk-sut-1-l-p-a8251e","images":{"PRODUCT_LIST":"https://images.migrosone.com/sanalmarket/product/11019550/11019550-0aa0ab-105x105.jpg","PRODUCT_DETAIL":"https://images.migrosone.com/sanalmarket/product/11019550/11019550-0aa0ab.jpg","PRODUCT_HD":"https://images.migrosone.com/sanalmarket/product/11019550/11019550-0aa0ab-1650x1650.jpg","CART":"https://images.migrosone.com/sanalmarket/product/11019550/11019550-0aa0ab-46x46.jpg"}},{"id":20000011010151,"sku":"11010151","name":"Torku Uht Süt 500 Ml","brand":"Torku","category":"Uzun Ömürlü Süt","unit":"PIECE","regular_price":49.95,"shown_price":49.95,"discount_rate":0,"pretty_name":"torku-uht-sut-500-ml-p-a80067","images":{"PRODUCT_LIST":"https://images.migrosone.com/sanalmarket/product/11010151/torku-uht-sut-500-ml-1c20d8-105x105.jpg","PRODUCT_DETAIL":"https://images.migrosone.com/sanalmarket/product/11010151/torku-uht-sut-500-ml-1c20d8.jpg","PRODUCT_HD":"https://images.migrosone.com/sanalmarket/product/11010151/torku-uht-sut-500-ml-1c20d8-1650x1650.jpg","CART":"https://images.migrosone.com/sanalmarket/product/11010151/torku-uht-sut-500-ml-1c20d8-46x46.jpg"}}],"total_count":350,"page_count":12,"current_page":1}}