{"status":"success","data":{"products":[{"id":20000010300086,"sku":"10300086","name":"Ülker Sürmix Peynirli Ballı Sürme 180 G","brand":"Ülker","category":"Krem Peynir","unit":"PIECE","regular_price":59.5,"shown_price":44.63,"discount_rate":25,"pretty_name":"ulker-surmix-peynirli-balli-surme-180-g-p-9d2ab6","images":{"PRODUCT_LIST":"https://images.migrosone.com/sanalmarket/product/10300086/10300086_1-b4c2ea-105x105.jpg","PRODUCT_DETAIL":"https://images.migrosone.com/sanalmarket/product/10300086/10300086_1-b4c2ea.jpg","PRODUCT_HD":"https://images.migrosone.com/sanalmarket/product/10300086/10300086_1-b4c2ea-1650x1650.jpg","CART":"https://images.migrosone.com/sanalmarket/product/10300086/10300086_1-b4c2ea-46x46.jpg"}},{"id":20000005120000,"sku":"05120000","name":"Sofra Ekmek Adet","brand":"Reyondan","category":"Ekmek","unit":"PIECE","regular_price":20.0,"shown_price":20.0,"discount_rate":0,"pretty_name":"sofra-ekmek-adet-p-4e2000","images":{"PRODUCT_LIST":"https://images.migrosone.com/sanalmarket/product/05120000/05120000-a957e2-105x105.jpg","PRODUCT_DETAIL":"https://images.migrosone.com/sanalmarket/product/05120000/05120000-a957e2.jpg","PRODUCT_HD":"https://images.migrosone.com/sanalmarket/product/05120000/05120000-a957e2-1650x1650.jpg","CART":"https://images.migrosone.com/sanalmarket/product/05120000/05120000-a957e2-46x46.jpg"}},{"id":20000005120002,"sku":"05120002","name":"Papatya Ekmek Adet Küçük","brand":"Reyondan","category":"Ekmek","unit":"PIECE","regular_price":59.9,"shown_price":59.9,"discount_rate":0,"pretty_name":"papatya-ekmek-adet-kucuk-p-4e2002","images":{"PRODUCT_LIST":"https://images.migrosone.com/sanalmarket/product/05120002/05120002-53afd2-105x105.jpg","PRODUCT_DETAIL":"https://images.migrosone.com/sanalmarket/product/05120002/05120002-53afd2.jpg","PRODUCT_HD":"https://images.migrosone.com/sanalmarket/product/05120002/05120002-53afd2-1650x1650.jpg","CART":"https://images.migrosone.com/sanalmarket/product/05120002/05120002-53afd2-46x46.jpg"}},{"id":20000010300085,"sku":"10300085","name":"Ülker Sürmix Peynirli Çikolatalı Sürme 180 G","brand":"Ülker","category":"Krem Peynir","unit":"PIECE","regular_price":59.5,"shown_price":44.63,"discount_rate":25,"pretty_name":"ulker-surmix-peynirli-cikolatali-surme-180-g-p-9d2ab5","images":{"PRODUCT_LIST":"https://images.migrosone.com/sanalmarket/product/10300085/10300085_1-f7cd85-105x105.jpg","PRODUCT_DETAIL":"https://images.migrosone.com/sanalmarket/product/10300085/10300085_1-f7cd85.jpg","PRODUCT_HD":"https://images.migrosone.com/sanalmarket/product/10300085/10300085_1-f7cd85-1650x1650.jpg","CART":"https://images.migrosone.com/sanalmarket/product/10300085/10300085_1-f7cd85-46x46.jpg"}},{"id":20000010301589,"sku":"10301589","name":"Ülker Sürmix Peynirli Zeytin Ezmeli Sürme 180 G","brand":"Ülker","category":"Krem Peynir","unit":"PIECE","regular_price":59.5,"shown_price":44.63,"discount_rate":25,"pretty_name":"ulker-surmix-peynirli-zeytin-ezmeli-surme-180-g-p-9d3095","images":{"PRODUCT_LIST":"https://images.migrosone.com/sanalmarket/product/10301589/10301589_1-ece0ba-105x105.jpg","PRODUCT_DETAIL":"https://images.migrosone.com/sanalmarket/product/10301589/10301589_1-ece0ba.jpg","PRODUCT_HD":"https://images.migrosone.com/sanalmarket/product/10301589/10301589_1-ece0ba-1650x1650.jpg","CART":"https://images.migrosone.com/sanalmarket/product/10301589/10301589_1-ece0ba-46x46.jpg"}},{"id":20000005052645,"sku":"05052645","name":"İhe Altınçörek Fındıklı ve Üzümlü Ekmek 60 G","brand":"İhe","category":"Ekmek","unit":"PIECE","regular_price":15.0,"shown_price":15.0,"discount_rate":0,"pretty_name":"ihe-altincorek-findikli-ve-uzumlu-ekmek-60-g-p-4d18e5","images":{"PRODUCT_LIST":"https://images.migrosone.com/sanalmarket/product/05052645/5052645_1-e6ada2-105x105.jpg","PRODUCT_DETAIL":"https://images.migrosone.com/sanalmarket/product/05052645/5052645_1-e6ada2.jpg","PRODUCT_HD":"https://images.migrosone.com/sanalmarket/product/05052645/5052645_1-e6ada2-1650x1650.jpg","CART":"https://images.migrosone.com/sanalmarket/product/05052645/5052645_1-e6ada2-46x46.jpg"}},{"id":20000005051045,"sku":"05051045","name":"İhe Tahıl Ambarı Çok Tahıllı Ekmek 500 G","brand":"İhe","category":"Ekmek","unit":"PIECE","regular_price":60.0,"shown_price":60.0,"discount_rate":0,"pretty_name":"ihe-tahil-ambari-cok-tahilli-ekmek-500-g-p-4d12a5","images":{"PRODUCT_LIST":"https://images.migrosone.com/sanalmarket/product/05051045/5051045_1-644f2d-105x105.jpg","PRODUCT_DETAIL":"https://images.migrosone.com/sanalmarket/product/05051045/5051045_1-644f2d.jpg","PRODUCT_HD":"https://images.migrosone.com/sanalmarket/product/05051045/5051045_1-644f2d-1650x1650.jpg","CART":"https://images.migrosone.com/sanalmarket/product/05051045/5051045_1-644f2d-46x46.jpg"}},{"id":20000005052000,"sku":"05052000","name":"İstanbul Organik Halk Ekmek 500 G","brand":"İhe","category":"Ekmek","unit":"PIECE","regular_price":65.0,"shown_price":65.0,"discount_rate":0,"pretty_name":"istanbul-organik-halk-ekmek-500-g-p-4d1660","images":{"PRODUCT_LIST":"https://images.migrosone.com/sanalmarket/product/05052000/05052000-2d95e7-105x105.jpg","PRODUCT_DETAIL":"https://images.migrosone.com/sanalmarket/product/05052000/05052000-2d95e7.jpg","PRODUCT_HD":"https://images.migrosone.com/sanalmarket/product/05052000/05052000-2d95e7-1650x1650.jpg","CART":"https://images.migrosone.com/sanalmarket/product/05052000/05052000-2d95e7-46x46.jpg"}},{"id":20000005120015,"sku":"05120015","name":"Baget Ekmek Sade","brand":"Reyondan","category":"Ekmek","unit":"PIECE","regular_price":59.9,"shown_price":59.9,"discount_rate":0,"pretty_name":"baget-ekmek-sade-p-4e200f","images":{"PRODUCT_LIST":"https://images.migrosone.com/sanalmarket/product/05120015/05120015-3d0314-105x105.jpg","PRODUCT_DETAIL":"https://images.migrosone.com/sanalmarket/product/05120015/05120015-3d0314.jpg","PRODUCT_HD":"https://images.migrosone.com/sanalmarket/product/05120015/05120015-3d0314-1650x1650.jpg","CART":"https://images.migrosone.com/sanalmarket/product/05120015/05120015-3d0314-46x46.jpg"}},{"id":20000005120004,"sku":"05120004","name":"Susamlı Ekmek Adet","brand":"Reyondan","category":"Ekmek","unit":"PIECE","regular_price":59.9,"shown_price":59.9,"discount_rate":0,"pretty_name":"susamli-ekmek-adet-p-4e2004","images":{"PRODUCT_LIST":"https://images.migrosone.com/sanalmarket/product/05120004/05120004-0ba1e4-105x105.jpg","PRODUCT_DETAIL":"https://images.migrosone.com/sanalmarket/product/05120004/05120004-0ba1e4.jpg","PRODUCT_HD":"https://images.migrosone.com/sanalmarket/product/05120004/05120004-0ba1e4-1650x1650.jpg","CART":"https://images.migrosone.com/sanalmarket/product/05120004/05120004-0ba1e4-46x46.jpg"}},{"id":20000005120013,"sku":"05120013","name":"Kepekli Ekmek Adet","brand":"Reyondan","category":"Ekmek","unit":"PIECE","regular_price":59.9,"shown_price":59.9,"discount_rate":0,"pretty_name":"kepekli-ekmek-adet-p-4e200d","images":{"PRODUCT_LIST":"https://images.migrosone.com/sanalmarket/product/05120013/05120013-45a615-105x105.jpg","PRODUCT_DETAIL":"https://images.migrosone.com/sanalmarket/product/05120013/05120013-45a615.jpg","PRODUCT_HD":"https://images.migrosone.com/sanalmarket/product/05120013/05120013-45a615-1650x1650.jpg","CART":"https://images.migrosone.com/sanalmarket/product/05120013/05120013-45a615-46x46.jpg"}},{"id":20000005054766,"sku":"05054766","name":"Ekmek Dünyası Favori Sac Ekmek 350 G","brand":"Ekmek Dünyası Favori","category":"Ekmek","unit":"PIECE","regular_price":56.95,"shown_price":56.95,"discount_rate":0,"pretty_name":"ekmek-dunyasi-favori-sac-ekmek-350-g-p-4d212e","images":{"PRODUCT_LIST":"https://images.migrosone.com/sanalmarket/product/05054766/05054766_1-05853b-105x105.jpg","PRODUCT_DETAIL":"https://images.migrosone.com/sanalmarket/product/05054766/05054766_1-05853b.jpg","PRODUCT_HD":"https://images.migrosone.com/sanalmarket/product/05054766/05054766_1-05853b-1650x1650.jpg","CART":"https://images.migrosone.com/sanalmarket/product/05054766/05054766_1-05853b-46x46.jpg"}},{"id":20000005052643,"sku":"05052643","name":"İhe Tam Buğday Ekmeği 400 G","brand":"İhe","category":"Ekmek","unit":"PIECE","regular_price":55.0,"shown_price":55.0,"discount_rate":0,"pretty_name":"ihe-tam-bugday-ekmegi-400-g-p-4d18e3","images":{"PRODUCT_LIST":"https://images.migrosone.com/sanalmarket/product/05052643/05052643-e933ef-105x105.jpg","PRODUCT_DETAIL":"https://images.migrosone.com/sanalmarket/product/05052643/05052643-e933ef.jpg","PRODUCT_HD":"https://images.migrosone.com/sanalmarket/product/05052643/05052643-e933ef-1650x1650.jpg","CART":"https://images.migrosone.com/sanalmarket/product/05052643/05052643-e933ef-46x46.jpg"}},{"id":20000005052657,"sku":"05052657","name":"İhe Zeytinli Kekikli Altın Çörek 50 G","brand":"İhe","category":"Ekmek","unit":"PIECE","regular_price":15.0,"shown_price":15.0,"discount_rate":0,"pretty_name":"ihe-zeytinli-kekikli-altin-corek-50-g-p-4d18f1","images":{"PRODUCT_LIST":"https://images.migrosone.com/sanalmarket/product/05052657/05052657-0562fb-105x105.jpg","PRODUCT_DETAIL":"https://images.migrosone.com/sanalmarket/product/05052657/05052657-0562fb.jpg","PRODUCT_HD":"https://images.migrosone.com/sanalmarket/product/05052657/05052657-0562fb-1650x1650.jpg","CART":"https://images.migrosone.com/sanalmarket/product/05052657/05052657-0562fb-46x46.jpg"}},{"id":20000005120039,"sku":"05120039","name":"Ekşi Mayalı Ekmek Adet 500 G","brand":"Reyondan","category":"Ekmek","unit":"PIECE","regular_price":99.9,"shown_price":99.9,"discount_rate":0,"pretty_name":"eksi-mayali-ekmek-adet-500-g-p-4e2027","images":{"PRODUCT_LIST":"https://images.migrosone.com/sanalmarket/product/05120039/05120039-a1a4d7-105x105.jpg","PRODUCT_DETAIL":"https://images.migrosone.com/sanalmarket/product/05120039/05120039-a1a4d7.jpg","PRODUCT_HD":"https://images.migrosone.com/sanalmarket/product/05120039/05120039-a1a4d7-1650x1650.jpg","CART":"https://images.migrosone.com/sanalmarket/product/05120039/05120039-a1a4d7-46x46.jpg"}},{"id":20000005053002,"sku":"05053002","name":"Wasa Glutensiz Gevrek Ekmek (Crispbread Gluten Free) 240 G","brand":"Wasa","category":"Ekmek","unit":"PIECE","regular_price":374.9,"shown_price":374.9,"discount_rate":0,"pretty_name":"wasa-glutensiz-gevrek-ekmek-crispbread-gluten-free-240-g-p-4d1a4a","images":{"PRODUCT_LIST":"https://images.migrosone.com/sanalmarket/product/05053002/5053002_1-49a50c-105x105.jpg","PRODUCT_DETAIL":"https://images.migrosone.com/sanalmarket/product/05053002/5053002_1-49a50c.jpg","PRODUCT_HD":"https://images.migrosone.com/sanalmarket/product/05053002/5053002_1-49a50c-1650x1650.jpg","CART":"https://images.migrosone.com/sanalmarket/product/05053002/5053002_1-49a50c-46x46.jpg"}},{"id":20000005051104,"sku":"05051104","name":"Ege Glutensiz Ekmek 285 G","brand":"Ege Glutensiz","category":"Ekmek","unit":"PIECE","regular_price":98.5,"shown_price":98.5,"discount_rate":0,"pretty_name":"ege-glutensiz-ekmek-285-g-p-4d12e0","images":{"PRODUCT_LIST":"https://images.migrosone.com/sanalmarket/product/05051104/05051104-f617fc-105x105.jpg","PRODUCT_DETAIL":"https://images.migrosone.com/sanalmarket/product/05051104/05051104-f617fc.jpg","PRODUCT_HD":"https://images.migrosone.com/sanalmarket/product/05051104/05051104-f617fc-1650x1650.jpg","CART":"https://images.migrosone.com/sanalmarket/product/05051104/05051104-f617fc-46x46.jpg"}},{"id":20000005056736,"sku":"05056736","name":"Mayaköy Organik Tahıllı Ekmek 400 G","brand":"Mayaköy","category":"Ekmek","unit":"PIECE","regular_price":244.0,"shown_price":244.0,"discount_rate":0,"pretty_name":"mayakoy-organik-tahilli-ekmek-400-g-p-4d28e0","images":{"PRODUCT_LIST":"https://images.migrosone.com/sanalmarket/product/05056736/05056736-34deba-105x105.jpg","PRODUCT_DETAIL":"https://images.migrosone.com/sanalmarket/product/05056736/05056736-34deba.jpg","PRODUCT_HD":"https://images.migrosone.com/sanalmarket/product/05056736/05056736-34deba-1650x1650.jpg","CART":"https://images.migrosone.com/sanalmarket/product/05056736/05056736-34deba-46x46.jpg"}},{"id":20000005052647,"sku":"05052647","name":"İhe Tuz İlave Edilmemiş Tam Buğday Unlu Ekmek 400 G","brand":"İhe","category":"Ekmek","unit":"PIECE","regular_price":45.0,"shown_price":45.0,"discount_rate":0,"pretty_name":"ihe-tuz-ilave-edilmemis-tam-bugday-unlu-ekmek-400-g-p-4d18e7","images":{"PRODUCT_LIST":"https://images.migrosone.com/sanalmarket/product/05052647/05052647-bc1872-105x105.jpg","PRODUCT_DETAIL":"https://images.migrosone.com/sanalmarket/product/05052647/05052647-bc1872.jpg","PRODUCT_HD":"https://images.migrosone.com/sanalmarket/product/05052647/05052647-bc1872-1650x1650.jpg","CART":"https://images.migrosone.com/sanalmarket/product/05052647/05052647-bc1872-46x46.jpg"}},{"id":20000005059846,"sku":"05059846","name":"Schar Pan Rustico Glutensiz Lifli Ekmek 250 G","brand":"Schar","category":"Ekmek","unit":"PIECE","regular_price":181.95,"shown_price":181.95,"discount_rate":0,"pretty_name":"schar-pan-rustico-glutensiz-lifli-ekmek-250-g-p-4d3506","images":{"PRODUCT_LIST":"https://images.migrosone.com/sanalmarket/product/05059846/05059846-5bcf4d-105x105.jpg","PRODUCT_DETAIL":"https://images.migrosone.com/sanalmarket/product/05059846/05059846-5bcf4d.jpg","PRODUCT_HD":"https://images.migrosone.com/sanalmarket/product/05059846/05059846-5bcf4d-1650x1650.jpg","CART":"https://images.migrosone.com/sanalmarket/product/05059846/05059846-5bcf4d-46x46.jpg"}},{"id":20000009112147,"sku":"09112147","name":"Schar Pan Multigrano Glutensiz Ekmek 250 G","brand":"Schar","category":"Ekmek","unit":"PIECE","regular_price":181.95,"shown_price":181.95,"discount_rate":0,"pretty_name":"schar-pan-multigrano-glutensiz-ekmek-250-g-p-8b0a53","images":{"PRODUCT_LIST":"https://images.migrosone.com/sanalmarket/product/09112147/09112147-80d8ff-105x105.jpg","PRODUCT_DETAIL":"https://images.migrosone.com/sanalmarket/product/09112147/09112147-80d8ff.jpg","PRODUCT_HD":"https://images.migrosone.com/sanalmarket/product/09112147/09112147-80d8ff-1650x1650.jpg","CART":"https://images.migrosone.com/sanalmarket/product/09112147/09112147-80d8ff-46x46.jpg"}},{"id":20000005059847,"sku":"05059847","name":"Schar Pan Blanco Glutensiz Dilimli Ekmek 250 G","brand":"Schar","category":"Ekmek","unit":"PIECE","regular_price":145.95,"shown_price":145.95,"discount_rate":0,"pretty_name":"schar-pan-blanco-glutensiz-dilimli-ekmek-250-g-p-4d3507","images":{"PRODUCT_LIST":"https://images.migrosone.com/sanalmarket/product/05059847/05059847-8cf39c-105x105.jpg","PRODUCT_DETAIL":"https://images.migrosone.com/sanalmarket/product/05059847/05059847-8cf39c.jpg","PRODUCT_HD":"https://images.migrosone.com/sanalmarket/product/05059847/05059847-8cf39c-1650x1650.jpg","CART":"https://images.migrosone.com/sanalmarket/product/05059847/05059847-8cf39c-46x46.jpg"}},{"id":20000005051108,"sku":"05051108","name":"Uno Büyük Tost Ekmeği 550 G","brand":"Uno","category":"Ekmek","unit":"PIECE","regular_price":90.0,"shown_price":79.9,"discount_rate":11,"pretty_name":"uno-buyuk-tost-ekmegi-550-g-p-4d12e4","images":{"PRODUCT_LIST":"https://images.migrosone.com/sanalmarket/product/05051108/5051108_1-6606d7-105x105.jpg","PRODUCT_DETAIL":"https://images.migrosone.com/sanalmarket/product/05051108/5051108_1-6606d7.jpg","PRODUCT_HD":"https://images.migrosone.com/sanalmarket/product/05051108/5051108_1-6606d7-1650x1650.jpg","CART":"https://images.migrosone.com/sanalmarket/product/05051108/5051108_1-6606d7-46x46.jpg"}},{"id":20000046051410,"sku":"46051410","name":"İhe Tost Ekmeği 670 G","brand":"İhe","category":"Ekmek","unit":"PIECE","regular_price":60.0,"shown_price":60.0,"discount_rate":0,"pretty_name":"ihe-tost-ekmegi-670-g-p-2beb052","images":{"PRODUCT_LIST":"https://images.migrosone.com/sanalmarket/product/46051410/46051410-5272e4-105x105.jpg","PRODUCT_DETAIL":"https://images.migrosone.com/sanalmarket/product/46051410/46051410-5272e4.jpg","PRODUCT_HD":"https://images.migrosone.com/sanalmarket/product/46051410/46051410-5272e4-1650x1650.jpg","CART":"https://images.migrosone.com/sanalmarket/product/46051410/46051410-5272e4-46x46.jpg"}},{"id":20000005057936,"sku":"05057936","name":"Ekmek Dünyası Favori Mini Bazlama 150 G","brand":"Ekmek Dünyası Favori","category":"Ekmek","unit":"PIECE","regular_price":37.95,"shown_price":37.95,"discount_rate":0,"pretty_name":"ekmek-dunyasi-favori-mini-bazlama-150-g-p-4d2d90","images":{"PRODUCT_LIST":"https://images.migrosone.com/sanalmarket/product/05057936/05057936_1-ee892a-105x105.jpg","PRODUCT_DETAIL":"https://images.migrosone.com/sanalmarket/product/05057936/05057936_1-ee892a.jpg","PRODUCT_HD":"https://images.migrosone.com/sanalmarket/product/05057936/05057936_1-ee892a-1650x1650.jpg","CART":"https://images.migrosone.com/sanalmarket/product/05057936/05057936_1-ee892a-46x46.jpg"}},{"id":20000005056370,"sku":"05056370","name":"Untad Special Tahıl Ekmeği 480 G","brand":"Untad","category":"Ekmek","unit":"PIECE","regular_price":109.5,"shown_price":109.5,"discount_rate":0,"pretty_name":"untad-special-tahil-ekmegi-480-g-p-4d2772","images":{"PRODUCT_LIST":"https://images.migrosone.com/sanalmarket/product/05056370/05056370-f3e1b8-105x105.jpg","PRODUCT_DETAIL":"https://images.migrosone.com/sanalmarket/product/05056370/05056370-f3e1b8.jpg","PRODUCT_HD":"https://images.migrosone.com/sanalmarket/product/05056370/05056370-f3e1b8-1650x1650.jpg","CART":"https://images.migrosone.com/sanalmarket/product/05056370/05056370-f3e1b8-46x46.jpg"}},{"id":20000005057956,"sku":"05057956","name":"Ekmek Dünyası Favori Kanepe Burger 200 G","brand":"Ekmek Dünyası Favori","category":"Ekmek","unit":"PIECE","regular_price":42.95,"shown_price":42.95,"discount_rate":0,"pretty_name":"ekmek-dunyasi-favori-kanepe-burger-200-g-p-4d2da4","images":{"PRODUCT_LIST":"https://images.migrosone.com/sanalmarket/product/05057956/05057956-5bc859-105x105.jpeg","PRODUCT_DETAIL":"https://images.migrosone.com/sanalmarket/product/05057956/05057956-5bc859.jpeg","PRODUCT_HD":"https://images.migrosone.com/sanalmarket/product/05057956/05057956-5bc859-1650x1650.jpeg","CART":"https://images.migrosone.com/sanalmarket/product/05057956/05057956-5bc859-46x46.jpeg"}},{"id":20000005120021,"sku":"05120021","name":"Çavdarlı Ekmek Adet","brand":"Reyondan","category":"Ekmek","unit":"PIECE","regular_price":69.9,"shown_price":69.9,"discount_rate":0,"pretty_name":"cavdarli-ekmek-adet-p-4e2015","images":{"PRODUCT_LIST":"https://images.migrosone.com/sanalmarket/product/05120021/05120021-71c260-105x105.jpg","PRODUCT_DETAIL":"https://images.migrosone.com/sanalmarket/product/05120021/05120021-71c260.jpg","PRODUCT_HD":"https://images.migrosone.com/sanalmarket/product/05120021/05120021-71c260-1650x1650.jpg","CART":"https://images.migrosone.com/sanalmarket/product/05120021/05120021-71c260-46x46.jpg"}},{"id":20000005120024,"sku":"05120024","name":"Tam Buğday Unlu Ekmek Adet","brand":"Reyondan","category":"Ekmek","unit":"PIECE","regular_price":59.9,"shown_price":59.9,"discount_rate":0,"pretty_name":"tam-bugday-unlu-ekmek-adet-p-4e2018","images":{"PRODUCT_LIST":"https://images.migrosone.com/sanalmarket/product/05120024/05120024-bc1ed4-105x105.jpg","PRODUCT_DETAIL":"https://images.migrosone.com/sanalmarket/product/05120024/05120024-bc1ed4.jpg","PRODUCT_HD":"https://images.migrosone.com/sanalmarket/product/05120024/05120024-bc1ed4-1650x1650.jpg","CART":"https://images.migrosone.com/sanalmarket/product/05120024/05120024-bc1ed4-46x46.jpg"}},{"id":20000005051041,"sku":"05051041","name":"Uno Premium Çok Tahıllı ve Siyez Buğdaylı 400 G","brand":"Uno","category":"Ekmek","unit":"PIECE","regular_price":90.0,"shown_price":79.9,"discount_rate":11,"pretty_name":"uno-premium-cok-tahilli-ve-siyez-bugdayli-400-g-p-4d12a1","images":{"PRODUCT_LIST":"https://images.migrosone.com/sanalmarket/product/05051041/05051041_1-f32536-105x105.jpg","PRODUCT_DETAIL":"https://images.migrosone.com/sanalmarket/product/05051041/05051041_1-f32536.jpg","PRODUCT_HD":"https://images.migrosone.com/sanalmarket/product/05051041/05051041_1-f32536-1650x1650.jpg","CART":"https://images.migrosone.com/sanalmarket/product/05051041/05051041_1-f32536-46x46.jpg"}},{"id":20000005054750,"sku":"05054750","name":"Unabella Ponçik Ekmek 200 G","brand":"Unabella","category":"Ekmek","unit":"PIECE","regular_price":175.0,"shown_price":175.0,"discount_rate":0,"pretty_name":"unabella-poncik-ekmek-200-g-p-4d211e","images":{"PRODUCT_LIST":"https://images.migrosone.com/sanalmarket/product/05054750/05054750-b48bc7-105x105.jpg","PRODUCT_DETAIL":"https://images.migrosone.com/sanalmarket/product/05054750/05054750-b48bc7.jpg","PRODUCT_HD":"https://images.migrosone.com/sanalmarket/product/05054750/05054750-b48bc7-1650x1650.jpg","CART":"https://images.migrosone.com/sanalmarket/product/05054750/05054750-b48bc7-46x46.jpg"}},{"id":20000005057923,"sku":"05057923","name":"Ekmek Dünyası Favori Bazlama 250 G","brand":"Ekmek Dünyası Favori","category":"Ekmek","unit":"PIECE","regular_price":55.95,"shown_price":55.95,"discount_rate":0,"pretty_name":"ekmek-dunyasi-favori-bazlama-250-g-p-4d2d83","images":{"PRODUCT_LIST":"https://images.migrosone.com/sanalmarket/product/05057923/05057923-420ecb-105x105.jpeg","PRODUCT_DETAIL":"https://images.migrosone.com/sanalmarket/product/05057923/05057923-420ecb.jpeg","PRODUCT_HD":"https://images.migrosone.com/sanalmarket/product/05057923/05057923-420ecb-1650x1650.jpeg","CART":"https://images.migrosone.com/sanalmarket/product/05057923/05057923-420ecb-46x46.jpeg"}},{"id":20000005056350,"sku":"05056350","name":"Untad Kepek Ekmeği 500 G","brand":"Untad","category":"Ekmek","unit":"PIECE","regular_price":92.5,"shown_price":92.5,"discount_rate":0,"pretty_name":"untad-kepek-ekmegi-500-g-p-4d275e","images":{"PRODUCT_LIST":"https://images.migrosone.com/sanalmarket/product/05056350/05056350-6248d3-105x105.jpg","PRODUCT_DETAIL":"https://images.migrosone.com/sanalmarket/product/05056350/05056350-6248d3.jpg","PRODUCT_HD":"https://images.migrosone.com/sanalmarket/product/05056350/05056350-6248d3-1650x1650.jpg","CART":"https://images.migrosone.com/sanalmarket/product/05056350/05056350-6248d3-46x46.jpg"}}],"total_count":132,"page_count":5,"current_page":1}}